{
  "type": "object",
  "properties": {
    "source": {
      "type": "object",
      "properties": {
        "account": { "type": "string" },
        "poll_interval": { "type": "string", "format": "cron" }
      },
      "required": [ "account" ]
    },
    "alert_source": {
      "type": "object",
      "properties": {
        "url": { "type": "string" },
        "poll_interval": { "type": "string", "format": "cron" }
      },
      "required": [ "url" ]
    },
    "pushers": {
      "type": "object"
    }
  },
  "required": [ "source", "pushers" ]
}
